Chapter 1 Getting Started with Data in R | Statistical Inference via Data Science
…
12 columns corresponding to 12 variables describing each observation.

SpecCode, Genus, Species, SpeciesRefNo, etc. are the different columns, in other words, the different variables of this dataset.

We then have a preview of the first 10 rows of observations corresponding to the first 10 species. R is only showing the first 10 rows, because if it showed all 33,104 rows, it would overwhelm your screen.

... with 33,094 more rows, and 1 more variables: indicating to us that 33,094 more rows of data and 1 more variables could not fit in this screen.

[Add more on getting datasets: functions (species()) and reading .csv files]In addition to datasets built into packages, we can also import data from external sources using functions. For example, the species() function of the `rfishbase``  package is used to access the online dataset of FishBase. Run the following two lines of code in your console:

all_fishdata <- species()
all_fishdata

# A tibble: 34,299 x 101
   SpecCode Species     Genus   SpeciesRefNo Author    FBname   PicPreferredName
      <dbl> <chr>       <chr>          <dbl> <chr>     <chr>    <chr>           
 1    64588 Aapticheil… Aaptic…        78622 (Huber, … <NA>     Prweb_u0.jpg    
 2    16239 Aaptosyax … Aaptos…        10431 Rainboth… Giant s… Aagry_u0.gif    
 3     2347 Abactochro… Abacto…        85491 (Trewava… <NA>     Melab_u0.jpg    
 4    62612 Abalistes … Abalis…        54835 Matsuura… <NA>     Abfil_u0.jpg    
 5        9 Abalistes … Abalis…         9770 (Bloch &… Starry … Abste_u0.jpg    
 6    58334 Abalistes … Abalis…        11441 (Anonymo… <NA>     Abste_u9.jpg    
 7    62797 Abbottina … Abbott…        84795 Nguyen, … <NA>     <NA>            
 8    65146 Abbottina … Abbott…        81932 Huang & … <NA>     <NA>            
 9    55145 Abbottina … Abbott…        33792 Qin, 1987 <NA>     Ablia_u0.jpg    
10    55143 Abbottina … Abbott…        33792 (Wu & Wa… <NA>     Abobt_u0.jpg    
# … with 34,289 more rows, and 94 more variables: PicPreferredNameM <chr>,
#   PicPreferredNameF <chr>, PicPreferredNameJ <chr>, FamCode <dbl>,
#   Subfamily <chr>, GenCode <dbl>, SubGenCode <dbl>, BodyShapeI <chr>,
#   Source <chr>, AuthorRef <int>, Remark <chr>, TaxIssue <dbl>, Fresh <dbl>,
#   Brack <dbl>, Saltwater <dbl>, DemersPelag <chr>, Amphibious <int>,
#   AmphibiousRef <int>, AnaCat <chr>, MigratRef <dbl>,
#   DepthRangeShallow <dbl>, DepthRangeDeep <dbl>, DepthRangeRef <dbl>,
#   DepthRangeComShallow <dbl>, DepthRangeComDeep <dbl>, DepthComRef <dbl>,
#   LongevityWild <dbl>, LongevityWildRef <dbl>, LongevityCaptive <dbl>,
…
