Chapter 1 Getting Started with Data in R | Modern Biological Data Analysis
…
At the beginning of all subsequent chapters in this book, we’ll always have a list of packages that you should have installed and loaded in order to work with that chapter’s R code.

1.4.1 openintro package

The openintro package is developed by the OpenIntro project, which provides free educational resources. You can find a list of all included data sets on the package reference page as well as by running data(package = "openintro") in the R console after loading the package.

1.4.2 mammals data frame

As you will see, there are many ways to access data sets in R. We’ll start with mammals, a dataset built into the openintro R package that contains sleep data and other information about 39 mammalian species.

We’ll begin by previewing the mammals data frame. In the Console panel of RStudio, run the following code, either by typing or cutting-and-pasting it. It displays the contents of the mammals data frame in your console. Note that depending on the size of your monitor, the number of displayed columns may vary.

mammals

# A tibble: 62 × 11
   species          body_wt brain_wt non_dreaming dreaming total_sleep life_span
   <fct>              <dbl>    <dbl>        <dbl>    <dbl>       <dbl>     <dbl>
 1 Africanelephant  6.65e+3   5712           NA       NA           3.3      38.6
 2 Africangiantpou… 1   e+0      6.6          6.3      2           8.3       4.5
 3 ArcticFox        3.38e+0     44.5         NA       NA          12.5      14  
 4 Arcticgroundsqu… 9.2 e-1      5.7         NA       NA          16.5      NA  
 5 Asianelephant    2.55e+3   4603            2.1      1.8         3.9      69  
 6 Baboon           1.06e+1    180.           9.1      0.7         9.8      27  
 7 Bigbrownbat      2.3 e-2      0.3         15.8      3.9        19.7      19  
 8 Braziliantapir   1.6 e+2    169            5.2      1           6.2      30.4
 9 Cat              3.3 e+0     25.6         10.9      3.6        14.5      28  
10 Chimpanzee       5.22e+1    440            8.3      1.4         9.7      50  
# … with 52 more rows, and 4 more variables: gestation <dbl>, predation <int>,
#   exposure <int>, danger <int>
…
