Chapter 10 Multiple Regression | Modern Biological Data Analysis
…
10.3.2 Model selection using R-squared

At the end of the previous section in Figure 10.9 you compared an interaction model with a parallel slopes model, where both models attempted to explain \(y\) = the average energy expenditure of mole rats. In Tables 10.14 and 10.15, we observed that the interaction model was “more complex” in that the regression table had 4 rows versus the 3 rows of the parallel slopes model.

Most importantly however, when comparing the left and right-hand plots of Figure 10.9, we observed that the two lines corresponding to lazy and worker mole rats were not that different. Furthermore, this was supported by the values in the ln.mass::casteworker row of the regression table for the interaction model, shown in in Table 10.14. Given the similarity of the two slopes, we stated it could be argued that the “simpler” parallel slopes model should be favored.

In this section, we’ll mimic the model selection we just performed, but this time using a numerical and quantitative approach. Specifically, we’ll use the \(R^2\) summary statistic (pronounced “R-squared”), also called the “coefficient of determination”,

Since \(R^2\) is calculated using the variance of the observed and the fitted values of \(y\), let’s first review variance. Recall that one summary statistic of the spread (or variation) of a numerical variable is the standard deviation. The variance is merely the standard deviation squared, and it is therefore the average of the squared deviations of each observation from the mean, as you can see with the formula in A.1.3. In R, the variance can be computed using the var() summary function within summarize().

Recall that to get: 1) the observed values \(y\), 2) the fitted values \(\widehat{y}\) from a regression model, and 3) the resulting residuals \(y - \widehat{y}\) (i.e., deviations from the mean), we can apply the get_regression_points() function with our saved model, in this case model_2_interaction:

get_regression_points(model_2_interaction) 

# A tibble: 35 × 6
      ID ln.energy ln.mass caste  ln.energy_hat residual
   <int>     <dbl>   <dbl> <fct>          <dbl>    <dbl>
 1     1     3.689   3.85  worker         3.671    0.018
 2     2     3.689   3.989 worker         3.813   -0.125
 3     3     3.689   4.111 worker         3.938   -0.25 
 4     4     3.664   4.174 worker         4.004   -0.34 
 5     5     3.871   4.248 worker         4.08    -0.208
 6     6     3.85    4.263 worker         4.094   -0.244
 7     7     3.932   4.344 worker         4.177   -0.245
 8     8     3.689   4.489 worker         4.326   -0.637
 9     9     3.951   4.511 worker         4.349   -0.397
10    10     4.111   3.951 worker         3.775    0.336
# ℹ 25 more rows
…
