Chapter 3 Data Wrangling | Modern Biological Data Analysis
…
Returning to danger_comm_fish, our data frame with dangerous, commercial, aquarium fish species, we might only really be interested in the variables Species, Aquarium, and Dangerous. However, with the current data frame, it’s very difficult to find these columns among all the others:

View(danger_comm_fish)

Examining these columns is much easier if we work with a smaller data frame by select()ing  the desired variables:

slim_danger_comm_fish <- danger_comm_fish %>% 
  select(Species, Genus, Aquarium, Dangerous)

This slimmer data frame makes it easy to verify that we correctly filtered for commercial and highly commercial species and also helps us to see the various ways that fish are not “harmless”:

slim_danger_comm_fish

# A tibble: 228 × 4
   Species                      Genus           Aquarium   Dangerous            
   <chr>                        <chr>           <chr>      <chr>                
 1 Ablabys taenianotus          Ablabys         commercial venomous             
 2 Abudefduf vaigiensis         Abudefduf       commercial reports of ciguatera…
 3 Acanthodoras spinosissimus   Acanthodoras    commercial venomous             
 4 Acanthostracion polygonius   Acanthostracion commercial reports of ciguatera…
 5 Acanthostracion quadricornis Acanthostracion commercial reports of ciguatera…
 6 Acanthurus achilles          Acanthurus      commercial traumatogenic        
 7 Acanthurus chirurgus         Acanthurus      commercial traumatogenic        
 8 Acanthurus coeruleus         Acanthurus      commercial traumatogenic        
 9 Acanthurus leucopareius      Acanthurus      commercial reports of ciguatera…
10 Acanthurus lineatus          Acanthurus      commercial venomous             
# … with 218 more rows

Let’s say instead you want to drop, or de-select, certain variables. For example, it’s apparent that the information in the Genus variable is already present in the Species variable, so we may want to remove the Genus variable. We can deselect Genus by using the - sign:

slim_danger_comm_fish <- slim_danger_comm_fish %>% select(-Genus)

Another way of selecting columns/variables is by specifying a range of columns. For example, we might want to know which of the danger_comm_fish species live in fresh, brackish, or saltwater environments:

slim2_danger_comm_fish <- danger_comm_fish %>% select(SpecCode:Species, Fresh:Saltwater)
slim2_danger_comm_fish

# A tibble: 228 × 5
   SpecCode Species                      Fresh Brack Saltwater
   <chr>    <chr>                        <dbl> <dbl>     <dbl>
 1 10232    Ablabys taenianotus              0     0        -1
 2 6630     Abudefduf vaigiensis             0     0        -1
 3 12103    Acanthodoras spinosissimus      -1     0         0
 4 4287     Acanthostracion polygonius       0     0        -1
 5 92       Acanthostracion quadricornis     0     0        -1
 6 4306     Acanthurus achilles              0     0        -1
 7 943      Acanthurus chirurgus             0     0        -1
 8 944      Acanthurus coeruleus             0     0        -1
 9 4737     Acanthurus leucopareius          0     0        -1
10 1258     Acanthurus lineatus              0     0        -1
# … with 218 more rows
…
Another useful function similar to select() is  rename(), which as you may have guessed changes the name of specified variables. Suppose we want to rename the DemersPelag variable to something more understandable, such as Preferred_Habitat:

all_fishdata %>% 
  rename(Preferred_Habitat = DemersPelag)

Only the name of the specified variable has changed, and all of the other variables remain intact and unchanged. Note that here we used a single = sign within the rename(). For example, Preferred_Habitat = DemersPelag renames the DemersPelag variable to have the new name Preferred_Habitat. This is because we are not testing for equality like we would using ==. Instead we want to assign a new variable Preferred_Habitat to have the same values as DemersPelag and then delete the variable DemersPelag.

Tip: New dplyr users often forget that the new variable name comes before the equal sign, followed by the old variable. You can remember this as “New Before Old.” Tip 2: Avoid spaces and special symbols in your variable names, which in our experience can cause problems in R.

Pro-tip: We can also rename variables as we select() them from a data frame:

all_fishdata %>% 
  select(Species, Preferred_Habitat = DemersPelag)

# A tibble: 61,603 × 2
   Species                    Preferred_Habitat
   <chr>                      <chr>            
 1 Aapticheilichthys websteri benthopelagic    
 2 Aaptosyax grypus           pelagic          
 3 Abactochromis labrosus     demersal         
 4 Abalistes filamentosus     pelagic-neritic  
 5 Abalistes stellaris        demersal         
 6 Abalistes stellatus        reef-associated  
 7 Abbottina binhi            benthopelagic    
 8 Abbottina lalinensis       benthopelagic    
 9 Abbottina liaoningensis    demersal         
10 Abbottina obtusirostris    benthopelagic    
# … with 61,593 more rows
…
This code is similar to the code that created summary_brackish, but with an extra group_by() command added before the summarize(). Grouping the all_fishdata dataset by DemersPelag and then applying the summarize() functions yields a data frame that displays the mean and standard deviation length split by the different habitats.

It is important to note that the  group_by() function doesn’t change data frames by itself. Rather it changes the meta-data, or data about the data, specifically the grouping structure. It is only after we apply the summarize() function that the data frame changes.

For example, let’s consider the  all_fishdata data frame again. Run this code:

all_fishdata

# A tibble: 61,603 × 101
   SpecCode Species                    Genus SpeciesRefNo Author FBname PicPreferredName
   <chr>    <chr>                      <chr>        <dbl> <chr>  <chr>  <chr>           
 1 64588    Aapticheilichthys websteri Aapt…        78622 (Hube… <NA>   Prweb_u0.jpg    
 2 16239    Aaptosyax grypus           Aapt…        10431 Rainb… Giant… Aagry_u0.gif    
 3 2347     Abactochromis labrosus     Abac…        85491 (Trew… <NA>   Melab_u0.jpg    
 4 62612    Abalistes filamentosus     Abal…        54835 Matsu… <NA>   Abfil_u0.jpg    
 5 9        Abalistes stellaris        Abal…         9770 (Bloc… Starr… Abste_u0.jpg    
 6 58334    Abalistes stellatus        Abal…        11441 (Anon… <NA>   Abste_u9.jpg    
 7 62797    Abbottina binhi            Abbo…        84795 Nguye… <NA>   <NA>            
 8 65146    Abbottina lalinensis       Abbo…        81932 Huang… <NA>   <NA>            
 9 55145    Abbottina liaoningensis    Abbo…        33792 Qin, … <NA>   Ablia_u0.jpg    
10 55143    Abbottina obtusirostris    Abbo…        33792 (Wu &… <NA>   Abobt_u0.jpg    
# … with 61,593 more rows, and 94 more variables: PicPreferredNameM <chr>,
#   PicPreferredNameF <chr>, PicPreferredNameJ <chr>, FamCode <dbl>,
#   Subfamily <chr>, GenCode <dbl>, SubGenCode <dbl>, BodyShapeI <chr>,
#   Source <chr>, AuthorRef <chr>, Remark <chr>, TaxIssue <chr>, Fresh <dbl>,
#   Brack <dbl>, Saltwater <dbl>, DemersPelag <chr>, Amphibious <chr>,
#   AmphibiousRef <int>, AnaCat <chr>, MigratRef <dbl>,
#   DepthRangeShallow <chr>, DepthRangeDeep <dbl>, DepthRangeRef <dbl>, …

Observe that the first line of the output reads # A tibble: 61,603 x 101. This is an example of meta-data, in this case the number of observations/rows and variables/columns in all_fishdata. The actual data itself are the subsequent table of values. Now let’s pipe the all_fishdata data frame into group_by(DemersPelag):

all_fishdata %>% 
  group_by(DemersPelag)

# A tibble: 61,603 × 101
# Groups:   DemersPelag [14]
   SpecCode Species                    Genus SpeciesRefNo Author FBname PicPreferredName
   <chr>    <chr>                      <chr>        <dbl> <chr>  <chr>  <chr>           
 1 64588    Aapticheilichthys websteri Aapt…        78622 (Hube… <NA>   Prweb_u0.jpg    
 2 16239    Aaptosyax grypus           Aapt…        10431 Rainb… Giant… Aagry_u0.gif    
 3 2347     Abactochromis labrosus     Abac…        85491 (Trew… <NA>   Melab_u0.jpg    
 4 62612    Abalistes filamentosus     Abal…        54835 Matsu… <NA>   Abfil_u0.jpg    
 5 9        Abalistes stellaris        Abal…         9770 (Bloc… Starr… Abste_u0.jpg    
 6 58334    Abalistes stellatus        Abal…        11441 (Anon… <NA>   Abste_u9.jpg    
 7 62797    Abbottina binhi            Abbo…        84795 Nguye… <NA>   <NA>            
 8 65146    Abbottina lalinensis       Abbo…        81932 Huang… <NA>   <NA>            
 9 55145    Abbottina liaoningensis    Abbo…        33792 Qin, … <NA>   Ablia_u0.jpg    
10 55143    Abbottina obtusirostris    Abbo…        33792 (Wu &… <NA>   Abobt_u0.jpg    
# … with 61,593 more rows, and 94 more variables: PicPreferredNameM <chr>,
#   PicPreferredNameF <chr>, PicPreferredNameJ <chr>, FamCode <dbl>,
#   Subfamily <chr>, GenCode <dbl>, SubGenCode <dbl>, BodyShapeI <chr>,
#   Source <chr>, AuthorRef <chr>, Remark <chr>, TaxIssue <chr>, Fresh <dbl>,
#   Brack <dbl>, Saltwater <dbl>, DemersPelag <chr>, Amphibious <chr>,
#   AmphibiousRef <int>, AnaCat <chr>, MigratRef <dbl>,
#   DepthRangeShallow <chr>, DepthRangeDeep <dbl>, DepthRangeRef <dbl>, …
…
If you would like to remove this grouping structure meta-data, we can pipe the resulting data frame into the  ungroup() function:

all_fishdata %>% 
  group_by(DemersPelag) %>% 
  ungroup()

# A tibble: 61,603 × 101
   SpecCode Species                    Genus SpeciesRefNo Author FBname PicPreferredName
   <chr>    <chr>                      <chr>        <dbl> <chr>  <chr>  <chr>           
 1 64588    Aapticheilichthys websteri Aapt…        78622 (Hube… <NA>   Prweb_u0.jpg    
 2 16239    Aaptosyax grypus           Aapt…        10431 Rainb… Giant… Aagry_u0.gif    
 3 2347     Abactochromis labrosus     Abac…        85491 (Trew… <NA>   Melab_u0.jpg    
 4 62612    Abalistes filamentosus     Abal…        54835 Matsu… <NA>   Abfil_u0.jpg    
 5 9        Abalistes stellaris        Abal…         9770 (Bloc… Starr… Abste_u0.jpg    
 6 58334    Abalistes stellatus        Abal…        11441 (Anon… <NA>   Abste_u9.jpg    
 7 62797    Abbottina binhi            Abbo…        84795 Nguye… <NA>   <NA>            
 8 65146    Abbottina lalinensis       Abbo…        81932 Huang… <NA>   <NA>            
 9 55145    Abbottina liaoningensis    Abbo…        33792 Qin, … <NA>   Ablia_u0.jpg    
10 55143    Abbottina obtusirostris    Abbo…        33792 (Wu &… <NA>   Abobt_u0.jpg    
# … with 61,593 more rows, and 94 more variables: PicPreferredNameM <chr>,
#   PicPreferredNameF <chr>, PicPreferredNameJ <chr>, FamCode <dbl>,
#   Subfamily <chr>, GenCode <dbl>, SubGenCode <dbl>, BodyShapeI <chr>,
#   Source <chr>, AuthorRef <chr>, Remark <chr>, TaxIssue <chr>, Fresh <dbl>,
#   Brack <dbl>, Saltwater <dbl>, DemersPelag <chr>, Amphibious <chr>,
#   AmphibiousRef <int>, AnaCat <chr>, MigratRef <dbl>,
#   DepthRangeShallow <chr>, DepthRangeDeep <dbl>, DepthRangeRef <dbl>, …
…
We see that the greatest number of fish species have demersal and benthopelagic as the preferred habitat, followed by reef-associated.

3.6.1 Grouping by more than one variable

You are not limited to grouping by one variable. Say you want to know the number of fish species of each preferred habitat for each body shape. We can also group by a second variable BodyShapeI using group_by(DemersPelag, BodyShapeI):

by_Dp_Shape <- all_fishdata %>% 
  group_by(DemersPelag, BodyShapeI) %>% 
  summarize(count = n())
by_Dp_Shape

# A tibble: 68 × 3
# Groups:   DemersPelag [14]
   DemersPelag   BodyShapeI          count
   <chr>         <chr>               <int>
 1 -1            <NA>                    2
 2 bathydemersal eel-like              342
 3 bathydemersal elongated             958
 4 bathydemersal fusiform / normal     194
 5 bathydemersal other                 185
 6 bathydemersal other (see remarks)     7
 7 bathydemersal short and / or deep   174
 8 bathydemersal <NA>                  464
 9 bathypelagic  eel-like              102
10 bathypelagic  elongated             614
# … with 58 more rows
…
