Chapter 7 Hypothesis Testing | Modern Biological Data Analysis
…
7.3.1 infer package workflow

1. specify variables

Recall that we use the specify() verb to specify the response variable and, if needed, any explanatory variables for our study. In this case, since we are interested in any potential effects of treatment on infection rates, we set response as the response variable and treatment as the explanatory variable. We do so using formula = response ~ explanatory where response is the name of the response variable in the data frame and treatment is the name of the explanatory variable. So in our case it is response ~ treatment.

Furthermore, since we are interested in the proportion of female birds with "Malaria", and not the proportion of birds with "No Malaria", we set the argument success to "Malaria".

GreatTitMalaria %>% 
  specify(formula = response ~ treatment, success = "Malaria") 

Response: response (factor)
Explanatory: treatment (factor)
# A tibble: 65 × 2
   response   treatment
   <fct>      <fct>    
 1 Malaria    Control  
 2 Malaria    Control  
 3 Malaria    Control  
 4 Malaria    Control  
 5 Malaria    Control  
 6 Malaria    Control  
 7 Malaria    Control  
 8 No Malaria Control  
 9 No Malaria Control  
10 No Malaria Control  
# ℹ 55 more rows
…
"point" for hypotheses involving a single sample or

"independence" for hypotheses involving two samples.

In our case, since we have two samples (the birds on control nests and those on nests with egg removal), we set null = "independence".

GreatTitMalaria %>% 
  specify(formula = response ~ treatment, success = "Malaria") %>% 
  hypothesize(null = "independence")

Response: response (factor)
Explanatory: treatment (factor)
Null Hypothesis: independence
# A tibble: 65 × 2
   response   treatment
   <fct>      <fct>    
 1 Malaria    Control  
 2 Malaria    Control  
 3 Malaria    Control  
 4 Malaria    Control  
 5 Malaria    Control  
 6 Malaria    Control  
 7 Malaria    Control  
 8 No Malaria Control  
 9 No Malaria Control  
10 No Malaria Control  
# ℹ 55 more rows
…
For each of our 1000 shuffles, we can calculate this test statistic by setting stat = "diff in props". Furthermore, since we are interested in \(\widehat{p}_{e} - \widehat{p}_{c}\) we set order = c("Egg removal", "Control"). As we stated earlier, the order of the subtraction does not matter, so long as you stay consistent throughout your analysis and tailor your interpretations accordingly.

Let’s save the result in a data frame called null_distribution:

null_distribution <- GreatTitMalaria %>% 
  specify(formula = response ~ treatment, success = "Malaria") %>% 
  hypothesize(null = "independence") %>% 
  generate(reps = 1000, type = "permute") %>% 
  calculate(stat = "diff in props", order = c("Egg removal", "Control"))
null_distribution

Response: response (factor)
Explanatory: treatment (factor)
Null Hypothesis: independence
# A tibble: 1,000 × 2
   replicate       stat
       <int>      <dbl>
 1         1  0.176190 
 2         2 -0.0714286
 3         3 -0.319048 
 4         4 -0.0714286
 5         5 -0.0714286
 6         6  0.0523810
 7         7 -0.195238 
 8         8  0.0523810
 9         9 -0.0714286
10        10  0.114286 
# ℹ 990 more rows
…
(LC7.7) What are some flaws with hypothesis testing? How could we alleviate them?

(LC7.8) Consider two \(\alpha\) significance levels of 0.1 and 0.01. Of the two, which would lead to a more liberal hypothesis testing procedure? In other words, one that will, all things being equal, lead to more rejections of the null hypothesis \(H_0\).

7.5 Case study: Do living lizards have longer horns than dead lizards?

Let’s apply our knowledge of hypothesis testing to answer the question: “Are lizards with longer horns more likely to survive?”. Horned lizards possess an elaborate crown of bony horns that were presumed to provide protection against predators. To test this hypothesis, a team of herpetologists examined flat-tailed horned lizards (Phrynosoma mcalli), which are often eaten by loggerhead shrikes (such a pretty bird – and yet quite lethal!). The researchers examined the length of horns of both living and shrike-killed horned lizards to see if there was an association between horn length and predation status.

7.5.1 Horned lizards dataset

The HornedLizards dataset in the abd package contains information on 184 horned lizards. The group variable indicates the predation status (living or killed) and the horn.length variable indicates the squamosal horn length (in mm) of each lizard. We are interested in whether living horned lizards have a greater horn.length on average than killed ones.

HornedLizards %>% tibble()

# A tibble: 184 × 2
   horn.length group 
         <dbl> <fct> 
 1        25.2 living
 2        26.9 living
 3        26.6 living
 4        25.6 living
 5        25.7 living
 6        25.9 living
 7        27.3 living
 8        25.1 living
 9        30.3 living
10        25.6 living
# ℹ 174 more rows
…
In other words, the null hypothesis \(H_0\) suggests that both living and killed horned lizards have the same mean horn.length. This is the “hypothesized universe” we’ll assume is true. On the other hand, the alternative hypothesis \(H_A\) suggests that there is a difference. Unlike the one-sided alternative we used in the GreatTitMalaria exercise \(H_A: p_e - p_c > 0\), we are now considering a two-sided alternative of \(H_A: \mu_k - \mu_l \neq 0\).

Furthermore, we’ll pre-specify a low significance level of \(\alpha\) = 0.01. By setting this value low, all things being equal, there is a lower chance that the \(p\)-value will be less than \(\alpha\). Thus, there is a lower chance that we’ll reject the null hypothesis \(H_0\) in favor of the alternative hypothesis \(H_A\). In other words, we’ll reject the hypothesis that there is no difference in mean ratings for all killed and living horned lizards, only if we have quite strong evidence.

1. specify variables

Let’s now perform all the steps of the infer workflow. We first specify() the variables of interest in the HornedLizards data frame using the formula horn.length ~ group. This tells infer that the numerical variable horn.length is the outcome variable, while the binary variable group is the explanatory variable. Note that unlike previously when we were interested in proportions, since we are now interested in the mean of a numerical variable, we do not need to set the success argument.

HornedLizards %>% 
  specify(formula = horn.length ~ group)

Response: horn.length (numeric)
Explanatory: group (factor)
# A tibble: 184 × 2
   horn.length group 
         <dbl> <fct> 
 1        25.2 living
 2        26.9 living
 3        26.6 living
 4        25.6 living
 5        25.7 living
 6        25.9 living
 7        27.3 living
 8        25.1 living
 9        30.3 living
10        25.6 living
# ℹ 174 more rows

Observe at this point that the data in HornedLizards has not changed. The only change so far is the newly defined Response: horn.length (numeric) and Explanatory: group (factor) meta-data.

2. hypothesize the null

We set the null hypothesis \(H_0: \mu_k - \mu_l = 0\) by using the hypothesize() function. Since we have two samples, killed and living horned lizards, we set null to be "independence" as we described in Section 7.3.

HornedLizards %>% 
  specify(formula = horn.length ~ group) %>% 
  hypothesize(null = "independence")

Response: horn.length (numeric)
Explanatory: group (factor)
Null Hypothesis: independence
# A tibble: 184 × 2
   horn.length group 
         <dbl> <fct> 
 1        25.2 living
 2        26.9 living
 3        26.6 living
 4        25.6 living
 5        25.7 living
 6        25.9 living
 7        27.3 living
 8        25.1 living
 9        30.3 living
10        25.6 living
# ℹ 174 more rows
…
4. calculate summary statistics

Now that we have 1000 replicated “shuffles” assuming the null hypothesis \(H_0\) that both killed and living HornedLizards on average have the same horn lengths, let’s calculate() the appropriate summary statistic for these 1000 replicated shuffles. From Section 7.2, summary statistics relating to hypothesis testing have a specific name: test statistics. Since the unknown population parameter of interest is the difference in population means \(\mu_{k} - \mu_{l}\), the test statistic of interest here is the difference in sample means \(\overline{x}_{k} - \overline{x}_{l}\).

For each of our 1000 shuffles, we can calculate this test statistic by setting stat = "diff in means". Furthermore, since we are interested in \(\overline{x}_{k} - \overline{x}_{l}\), we set order = c("killed", "living"). Let’s save the results in a data frame called null_distribution_HornedLizards:

null_distribution_HornedLizards <- HornedLizards %>% 
  specify(formula = horn.length ~ group) %>% 
  hypothesize(null = "independence") %>% 
  generate(reps = 1000, type = "permute") %>% 
  calculate(stat = "diff in means", order = c("killed", "living"))
null_distribution_HornedLizards

# A tibble: 1,000 × 2
   replicate       stat
       <int>      <dbl>
 1         1  0.545152 
 2         2  0.700476 
 3         3  0.489394 
 4         4  0.0512987
 5         5  0.334069 
 6         6  0.0353680
 7         7 -0.494329 
 8         8 -0.104026 
 9         9  0.999177 
10        10  0.616840 
# ℹ 990 more rows
…
