Chapter 8 Basic Regression | Modern Biological Data Analysis
…
\[
\sum_{i=1}^{n}(y_i - \widehat{y}_i)^2
\]

Let’s use our data wrangling tools from Chapter 3 to compute the sum of squared residuals exactly:

# Fit regression model:
lion_model <- lm(proportion.black ~ age, 
                  data = LionNoses)

# Get regression points:
regression_points <- get_regression_points(lion_model)
regression_points

# A tibble: 32 × 5
      ID proportion.black   age proportion.black_hat residual
   <int>            <dbl> <dbl>                <dbl>    <dbl>
 1     1             0.21   1.1                0.134    0.076
 2     2             0.14   1.5                0.158   -0.018
 3     3             0.11   1.9                0.181   -0.071
 4     4             0.13   2.2                0.199   -0.069
 5     5             0.12   2.6                0.222   -0.102
 6     6             0.13   3.2                0.257   -0.127
 7     7             0.12   3.2                0.257   -0.137
 8     8             0.18   2.9                0.24    -0.06 
 9     9             0.23   2.4                0.21     0.02 
10    10             0.22   2.1                0.193    0.027
# … with 22 more rows
…
