Chapter 9 Inference for Regression | Modern Biological Data Analysis
…
FIGURE 9.2: Example of observed value, fitted value, and residual.

Furthermore, we can automate the calculation of all \(n\) = 32 residuals by applying the get_regression_points() function to our saved regression model in lion_model. Observe how the resulting values of residual are roughly equal to proportion.black - proportion.black_hat (there is potentially a slight difference due to rounding error).

# Fit regression model:
lion_model <- lm(proportion.black ~ age, data = LionNoses)
# Get regression points:
regression_points <- get_regression_points(lion_model)
regression_points

# A tibble: 32 × 5
      ID proportion.black   age proportion.black_hat residual
   <int>            <dbl> <dbl>                <dbl>    <dbl>
 1     1             0.21   1.1                0.134    0.076
 2     2             0.14   1.5                0.158   -0.018
 3     3             0.11   1.9                0.181   -0.071
 4     4             0.13   2.2                0.199   -0.069
 5     5             0.12   2.6                0.222   -0.102
 6     6             0.13   3.2                0.257   -0.127
 7     7             0.12   3.2                0.257   -0.137
 8     8             0.18   2.9                0.24    -0.06 
 9     9             0.23   2.4                0.21     0.02 
10    10             0.22   2.1                0.193    0.027
# ℹ 22 more rows
…
generate() replicates by using bootstrap resampling with replacement from the original sample of 32 lions. We generate reps = 1000 replicates using type = "bootstrap".

calculate() the summary statistic of interest: the fitted slope \(b_1\).

Using this bootstrap distribution, we’ll construct the 95% confidence interval using the percentile method and (if appropriate) the standard error method as well. It is important to note in this case that the bootstrapping with replacement is done row-by-row. Thus, the original pairs of proportion.black and age values are always kept together, but different pairs of proportion.black and age values may be resampled multiple times. The resulting confidence interval will denote a range of plausible values for the unknown population slope \(\beta_1\) quantifying the relationship between black nose proportions and lion ages for all lions in this wild population.

Let’s first construct the bootstrap distribution for the fitted slope \(b_1\):

bootstrap_distn_slope <- LionNoses %>% 
  specify(formula = proportion.black ~ age) %>%
  generate(reps = 1000, type = "bootstrap") %>% 
  calculate(stat = "slope")
bootstrap_distn_slope

# A tibble: 1,000 × 2
   replicate      stat
       <int>     <dbl>
 1         1 0.0651055
 2         2 0.0382313
 3         3 0.108056 
 4         4 0.0666601
 5         5 0.0715932
 6         6 0.0854565
 7         7 0.0624868
 8         8 0.0412859
 9         9 0.0796269
10        10 0.0761299
# ℹ 990 more rows
…
